{
  "2008": {
    "SC Ganguly": 109.40438871473354,
    "BB McCullum": 211.23595505617976,
    "RT Ponting": 79.59183673469387,
    "DJ Hussey": 119.92481203007519,
    "Mohammad Hafeez": 77.10843373493977,
    "R Dravid": 124.08026755852843,
    "W Jaffer": 106.4814814814815,
    "V Kohli": 99.3975903614458,
    "JH Kallis": 105.85106382978724,
    "CL White": 109.61538461538463,
    "MV Boucher": 125,
    "B Akhil": 153.33333333333334,
    "AA Noffke": 100,
    "P Kumar": 116.66666666666667,
    "Z Khan": 82.92682926829268,
    "SB Joshi": 37.5,
    "PA Patel": 96.48562300319489,
    "ML Hayden": 141.04477611940297,
    "MEK Hussey": 168,
    "MS Dhoni": 129.7805642633229,
    "SK Raina": 138.48684210526315,
    "JDP Oram": 163.63636363636365,
    "S Badrinath": 140.14598540145985,
    "K Goel": 96.20253164556962,
    "JR Hopes": 146.35761589403972,
    "KC Sangakkara": 154.58937198067633,
    "Yuvraj Singh": 156.54450261780104,
    "SM Katich": 133.33333333333331,
    "IK Pathan": 110.08403361344538,
    "T Kohli": 100,
    "YK Pathan": 171.93675889328063,
    "SR Watson": 147.96238244514106,
    "M Kaif": 101.14942528735634,
    "DS Lehmann": 94.73684210526315,
    "RA Jadeja": 126.16822429906543,
    "M Rawat": 87.17948717948718,
    "D Salunkhe": 137.5,
    "SK Warne": 118.64406779661016,
    "SK Trivedi": 55.55555555555556,
    "G Gambhir": 136.92307692307693,
    "V Sehwag": 177.29257641921396,
    "S Dhawan": 112.58278145695364,
    "L Ronchi": 103.03030303030303,
    "ST Jayasuriya": 154.35435435435437,
    "DJ Thornely": 81.25,
    "RV Uthappa": 109.96563573883162,
    "PR Shah": 94.44444444444444,
    "AM Nayar": 147.14285714285717,
    "SM Pollock": 126.72413793103448,
    "Harbhajan Singh": 176.47058823529412,
    "S Chanderpaul": 78.125,
    "LRPL Taylor": 175.2941176470588,
    "AC Gilchrist": 132.9268292682927,
    "Y Venugopal Rao": 133.33333333333331,
    "VVS Laxman": 124,
    "A Symonds": 147.70642201834863,
    "RG Sharma": 147.985347985348,
    "SB Styris": 91.05691056910568,
    "AS Yadav": 122.50000000000001,
    "SB Bangar": 95.91836734693877,
    "WPUJC Vaas": 123.52941176470588,
    "RP Singh": 108,
    "WP Saha": 133.61344537815125,
    "LR Shukla": 128.3464566929134,
    "DPMD Jayawardene": 130.65693430656935,
    "S Sohal": 57.14285714285714,
    "B Lee": 170,
    "PP Chawla": 150,
    "WA Mota": 92.85714285714286,
    "Kamran Akmal": 168.42105263157893,
    "Shahid Afridi": 192.85714285714286,
    "DJ Bravo": 129.92700729927006,
    "MA Khote": 109.09090909090908,
    "A Nehra": 25,
    "GC Smith": 119.1891891891892,
    "Pankaj Singh": 62.5,
    "RR Sarwan": 94.8051948051948,
    "S Sreesanth": 0,
    "VRV Singh": 133.33333333333331,
    "SS Tiwary": 136.8421052631579,
    "DS Kulkarni": 28.57142857142857,
    "R Vinay Kumar": 89.28571428571429,
    "AB Agarkar": 110.20408163265304,
    "M Kartik": 107.14285714285714,
    "I Sharma": 100,
    "AM Rahane": 66.66666666666666,
    "Shoaib Malik": 106.12244897959184,
    "MK Tiwary": 120.93023255813952,
    "KD Karthik": 134.25925925925927,
    "R Bhatia": 125.92592592592592,
    "MF Maharoof": 158.22784810126583,
    "VY Mahesh": 53.57142857142857,
    "TM Srivastava": 88.88888888888889,
    "B Chipli": 66.66666666666666,
    "DW Steyn": 40,
    "DB Das": 109.57446808510637,
    "MK Pandey": 60,
    "HH Gibbs": 105.69620253164558,
    "DNT Zoysa": 122.22222222222223,
    "D Kalyankrishna": 50,
    "SE Marsh": 136.58536585365854,
    "SA Asnodkar": 129.04564315352698,
    "Sohail Tanvir": 116.12903225806453,
    "Salman Butt": 112.20930232558139,
    "BJ Hodge": 75,
    "Umar Gul": 205.26315789473685,
    "AB Dinda": 66.66666666666666,
    "SP Fleming": 116.66666666666667,
    "S Vidyut": 126.08695652173914,
    "JA Morkel": 143.45238095238096,
    "AB de Villiers": 95.95959595959596,
    "LPC Silva": 160,
    "DB Ravi Teja": 128.23529411764707,
    "Misbah-ul-Haq": 144.44444444444443,
    "YV Takawale": 107.6923076923077,
    "RR Raje": 88.88888888888889,
    "PJ Sangwan": 50,
    "Mohammad Asif": 75,
    "GD McGrath": 133.33333333333331,
    "Joginder Sharma": 177.77777777777777,
    "MS Gony": 159.0909090909091,
    "M Muralitharan": 0,
    "M Ntini": 61.111111111111114,
    "DT Patil": 100,
    "A Kumble": 92.85714285714286,
    "S Anirudha": 20,
    "MM Patel": 0,
    "CK Kapugedera": 66.66666666666666,
    "A Chopra": 77.77777777777779,
    "T Taibu": 119.23076923076923,
    "J Arunkumar": 121.05263157894737,
    "PP Ojha": 50,
    "SP Goswami": 95.34883720930233,
    "SR Tendulkar": 99.47089947089947,
    "U Kaul": 0,
    "TM Dilshan": 131.64556962025316,
    "A Mishra": 88.09523809523809,
    "AD Mascarenhas": 112.5,
    "Niraj Patel": 125.60975609756098,
    "LA Pomersbach": 152,
    "Iqbal Abdulla": 100,
    "Younis Khan": 42.857142857142854,
    "PM Sarvesh Kumar": 100,
    "DP Vijaykumar": 100,
    "Shoaib Akhtar": 40,
    "Abdur Razzak": 0,
    "H Das": 66.66666666666666,
    "DR Smith": 115.38461538461537,
    "SD Chitnis": 180,
    "CRD Fernando": 200,
    "VS Yeligati": 100,
    "L Balaji": 0,
    "A Mukund": 0,
    "RR Powar": 164.70588235294116
  },
  "2009": {
    "ST Jayasuriya": 107.8048780487805,
    "SR Tendulkar": 116.29392971246007,
    "S Dhawan": 86.95652173913044,
    "JP Duminy": 111.37724550898203,
    "DJ Bravo": 103.3175355450237,
    "AM Nayar": 124.51612903225806,
    "Harbhajan Singh": 147.36842105263156,
    "Z Khan": 72.72727272727273,
    "PA Patel": 110.9375,
    "SK Raina": 137.77777777777777,
    "ML Hayden": 139.85330073349633,
    "A Flintoff": 114.81481481481481,
    "MS Dhoni": 123.88059701492537,
    "JDP Oram": 93.61702127659575,
    "S Badrinath": 107.92682926829269,
    "Joginder Sharma": 117.64705882352942,
    "T Thushara": 33.33333333333333,
    "JD Ryder": 127.27272727272727,
    "LRPL Taylor": 133.9712918660287,
    "KP Pietersen": 105.68181818181819,
    "RV Uthappa": 100.57471264367817,
    "R Dravid": 113.8655462184874,
    "V Kohli": 109.82142857142858,
    "B Akhil": 113.33333333333333,
    "P Kumar": 147.72727272727272,
    "R Vinay Kumar": 106.81818181818181,
    "GC Smith": 96.36363636363636,
    "SA Asnodkar": 103.15789473684211,
    "Niraj Patel": 45,
    "T Henderson": 91.66666666666666,
    "YK Pathan": 138.82978723404256,
    "AD Mascarenhas": 108.33333333333333,
    "RA Jadeja": 107.66423357664235,
    "SK Warne": 94.73684210526315,
    "M Rawat": 80,
    "MM Patel": 143.47826086956522,
    "Kamran Khan": 100,
    "RS Bopara": 113.11475409836065,
    "K Goel": 89.85507246376811,
    "KC Sangakkara": 101.21951219512195,
    "Yuvraj Singh": 107.93650793650794,
    "DPMD Jayawardene": 128.0701754385965,
    "IK Pathan": 121.73913043478262,
    "G Gambhir": 102.14285714285714,
    "V Sehwag": 135.6164383561644,
    "BB McCullum": 115.78947368421053,
    "CH Gayle": 122.66666666666666,
    "SC Ganguly": 88.73239436619718,
    "BJ Hodge": 116.24203821656052,
    "A Chopra": 68.75,
    "LR Shukla": 96.51162790697676,
    "MC Henriques": 97.43589743589743,
    "AB Agarkar": 113.79310344827587,
    "M Kartik": 105,
    "I Sharma": 160,
    "AB Dinda": 66.66666666666666,
    "AC Gilchrist": 147.76119402985074,
    "HH Gibbs": 108.16326530612245,
    "VVS Laxman": 61.29032258064516,
    "RG Sharma": 113.47962382445141,
    "JA Morkel": 132.87671232876713,
    "JH Kallis": 103.73563218390804,
    "R Bishnoi": 118.75,
    "DW Steyn": 0,
    "A Kumble": 100,
    "T Kohli": 50,
    "PP Chawla": 79.48717948717949,
    "SB Styris": 175,
    "Y Venugopal Rao": 105.98290598290599,
    "DB Ravi Teja": 91.54929577464789,
    "FH Edwards": 100,
    "KV Sharma": 33.33333333333333,
    "AB de Villiers": 129.52646239554318,
    "TM Dilshan": 117.41573033707866,
    "KD Karthik": 128.57142857142858,
    "MK Tiwary": 90,
    "MS Gony": 185.71428571428572,
    "M Muralitharan": 114.28571428571428,
    "PC Valthaty": 50,
    "RJ Quiney": 98.09523809523809,
    "AS Raut": 127.86885245901641,
    "SB Bangar": 40,
    "Yashpal Singh": 72.3076923076923,
    "Pankaj Singh": 100,
    "DR Smith": 160.44776119402985,
    "RP Singh": 47.05882352941176,
    "PP Ojha": 20,
    "PR Shah": 98.14814814814815,
    "MV Boucher": 123.96694214876034,
    "M Manhas": 117.1875,
    "WA Mota": 63.829787234042556,
    "AA Bilakhia": 82.71604938271605,
    "SS Tiwary": 108.33333333333333,
    "AN Ghosh": 100,
    "BAW Mendis": 0,
    "DL Vettori": 106.25,
    "A Mishra": 173.33333333333334,
    "PJ Sangwan": 60,
    "MN van Wyk": 123.7037037037037,
    "WP Saha": 175.609756097561,
    "SP Goswami": 89.83050847457628,
    "RE van der Merwe": 123.23232323232322,
    "MK Pandey": 140,
    "RR Powar": 109.52380952380953,
    "TL Suman": 122.79792746113989,
    "Shoaib Ahmed": 50,
    "SK Trivedi": 47.368421052631575,
    "GR Napier": 93.75,
    "AM Rahane": 112.5,
    "KP Appanna": 0,
    "SM Katich": 121.84873949579831,
    "TM Srivastava": 0,
    "LA Carseldine": 114.08450704225352,
    "NV Ojha": 121.73913043478262,
    "SM Harwood": 69.23076923076923,
    "M Vijay": 89.55223880597015,
    "SB Jakati": 133.33333333333331,
    "L Balaji": 40,
    "DA Warner": 118.97810218978103,
    "R Bhatia": 50,
    "S Sohal": 114.99999999999999,
    "W Jaffer": 83.33333333333334,
    "RJ Harris": 116.66666666666667,
    "S Sreesanth": 38.46153846153847,
    "RR Raje": 133.33333333333331,
    "DS Kulkarni": 50,
    "D du Preez": 76.92307692307693,
    "L Ronchi": 0,
    "A Symonds": 145.61403508771932,
    "B Lee": 82.35294117647058,
    "WPUJC Vaas": 142.85714285714286,
    "M Morkel": 100,
    "DJ Hussey": 160.65573770491804,
    "AD Mathews": 123.07692307692308,
    "LA Pomersbach": 85.41666666666666,
    "SD Chitnis": 85.71428571428571,
    "J Botha": 111.90476190476191,
    "YV Takawale": 81.81818181818183,
    "C Nanda": 0,
    "SL Malinga": 0,
    "MF Maharoof": 100,
    "A Nehra": 100,
    "Mashrafe Mortaza": 100,
    "A Singh": 100,
    "GJ Bailey": 118.42105263157893,
    "AB McDonald": 75,
    "Y Nagar": 90.9090909090909,
    "SS Shaikh": 150,
    "R Ashwin": 72.72727272727273,
    "Mohammad Ashraful": 33.33333333333333
  },
  "2010": {
    "MK Tiwary": 124.73684210526316,
    "SC Ganguly": 113.07339449541286,
    "CA Pujara": 105.17241379310344,
    "BJ Hodge": 107.6086956521739,
    "OA Shah": 122.34042553191489,
    "AD Mathews": 118.27411167512692,
    "AC Gilchrist": 146.7005076142132,
    "VVS Laxman": 104.91803278688525,
    "HH Gibbs": 110.7883817427386,
    "A Symonds": 120.8450704225352,
    "RG Sharma": 130.32258064516128,
    "Anirudh Singh": 91.30434782608695,
    "TL Suman": 116.28787878787878,
    "WPUJC Vaas": 90.9090909090909,
    "Jaskaran Singh": 80,
    "ST Jayasuriya": 94.28571428571428,
    "SR Tendulkar": 126.38036809815951,
    "AP Tare": 121.95121951219512,
    "SS Tiwary": 131.34796238244516,
    "AT Rayudu": 137.984496124031,
    "R Sathish": 116.66666666666667,
    "Harbhajan Singh": 166.66666666666669,
    "R McLaren": 92.95774647887323,
    "GC Smith": 118.91891891891892,
    "NV Ojha": 129.553264604811,
    "AA Jhunjhunwala": 107.6470588235294,
    "YK Pathan": 158.57142857142856,
    "P Dogra": 99.07407407407408,
    "AD Mascarenhas": 109.09090909090908,
    "A Uniyal": 66.66666666666666,
    "SK Warne": 47.61904761904761,
    "RS Bopara": 113.76146788990826,
    "MS Bisla": 117.83783783783784,
    "KC Sangakkara": 137.30769230769232,
    "Yuvraj Singh": 128.21782178217822,
    "DPMD Jayawardene": 143.08681672025722,
    "IK Pathan": 146.80851063829786,
    "M Kaif": 93.33333333333333,
    "PP Chawla": 100,
    "RR Powar": 100,
    "S Sreesanth": 168.75,
    "YA Abdulla": 0,
    "G Gambhir": 124.2152466367713,
    "V Sehwag": 157.52212389380531,
    "TM Dilshan": 86.27450980392157,
    "AB de Villiers": 90.98360655737704,
    "KD Karthik": 115.35269709543567,
    "M Manhas": 103.97350993377484,
    "MF Maharoof": 129.16666666666669,
    "JH Kallis": 110.85271317829456,
    "SP Goswami": 100,
    "MK Pandey": 111.6591928251121,
    "V Kohli": 142.7906976744186,
    "EJG Morgan": 116.66666666666667,
    "R Dravid": 126.10837438423646,
    "RV Uthappa": 166.96428571428572,
    "RE van der Merwe": 50,
    "P Kumar": 50,
    "M Vijay": 150.6578947368421,
    "ML Hayden": 117.28813559322033,
    "SK Raina": 136.78756476683938,
    "S Badrinath": 115.21035598705502,
    "JM Kemp": 104,
    "MS Dhoni": 133.48837209302326,
    "JA Morkel": 147.40740740740742,
    "R Ashwin": 81.08108108108108,
    "L Balaji": 94.73684210526315,
    "M Muralitharan": 50,
    "S Tyagi": 75,
    "SA Asnodkar": 125,
    "WP Saha": 128.84615384615387,
    "LR Shukla": 133.33333333333331,
    "RS Gavaskar": 33.33333333333333,
    "SE Bond": 50,
    "M Kartik": 104.76190476190477,
    "I Sharma": 35.294117647058826,
    "KA Pollard": 179.60526315789474,
    "DJ Bravo": 115.09433962264151,
    "A Mishra": 72.22222222222221,
    "PJ Sangwan": 90.9090909090909,
    "S Ladda": 0,
    "DP Nannes": 33.33333333333333,
    "MJ Lumb": 142.56410256410257,
    "DR Martyn": 73.07692307692307,
    "S Narwal": 116.66666666666667,
    "M Morkel": 90,
    "MM Patel": 133.33333333333331,
    "SK Trivedi": 181.8181818181818,
    "DA Warner": 145.36082474226802,
    "R Bhatia": 141.1764705882353,
    "PA Patel": 90,
    "RP Singh": 45,
    "AB Barath": 97.67441860465115,
    "Bipul Sharma": 128.57142857142858,
    "FY Fazal": 103.14465408805032,
    "AC Voges": 126.57342657342659,
    "Z Khan": 200,
    "MD Mishra": 112.9251700680272,
    "Y Venugopal Rao": 79.06976744186046,
    "MC Henriques": 220.00000000000003,
    "Y Nagar": 50,
    "UT Yadav": 100,
    "J Theron": 66.66666666666666,
    "MS Gony": 40,
    "CH Gayle": 148.2233502538071,
    "S Dhawan": 106.11111111111111,
    "MV Boucher": 144.44444444444443,
    "GJ Bailey": 69.23076923076923,
    "SJ Srivastava": 100,
    "R Sharma": 111.53846153846155,
    "Mandeep Singh": 57.14285714285714,
    "DJ Hussey": 105.61797752808988,
    "K Goel": 90,
    "B Lee": 110.00000000000001,
    "KM Jadhav": 126.66666666666666,
    "AB McDonald": 132.6530612244898,
    "R Vinay Kumar": 79.41176470588235,
    "DW Steyn": 92.85714285714286,
    "A Kumble": 50,
    "SW Tait": 92.3076923076923,
    "KB Arun Karthik": 60,
    "T Thushara": 100,
    "KAJ Roach": 111.11111111111111,
    "PD Collingwood": 129.29936305732483,
    "AB Agarkar": 133.33333333333331,
    "CK Langeveldt": 0,
    "SE Marsh": 127.82608695652173,
    "VS Malik": 150,
    "KP Pietersen": 151.28205128205127,
    "CL White": 154.83870967741936,
    "SR Watson": 158.1196581196581,
    "AS Raut": 116.66666666666667,
    "RJ Harris": 115.38461538461537,
    "PP Ojha": 37.5,
    "DL Vettori": 122.22222222222223,
    "LRPL Taylor": 115.78947368421053,
    "A Mithun": 166.66666666666669,
    "KP Appanna": 66.66666666666666,
    "AP Dole": 161.9047619047619,
    "DR Smith": 91.66666666666666,
    "AA Bilakhia": 66.66666666666666,
    "MEK Hussey": 86.04651162790698,
    "AN Ahmed": 66.66666666666666,
    "BB McCullum": 98.27586206896551,
    "JP Duminy": 118.93939393939394,
    "RS Sodhi": 200,
    "DE Bollinger": 120,
    "AB Dinda": 0,
    "BAW Mendis": 100,
    "S Sriram": 87.09677419354838,
    "A Nehra": 114.99999999999999,
    "B Sumanth": 92.10526315789474,
    "C Madan": 71.42857142857143,
    "Iqbal Abdulla": 0,
    "AG Paunikar": 0,
    "MR Marsh": 100,
    "AM Nayar": 113.72549019607843,
    "Pankaj Singh": 50,
    "AJ Finch": 110.5263157894737,
    "STR Binny": 160,
    "S Anirudha": 166.66666666666669,
    "Harmeet Singh": 0,
    "CRD Fernando": 100,
    "SL Malinga": 100
  },
  "2011": {
    "S Anirudha": 107.79220779220779,
    "M Vijay": 125.07204610951008,
    "SK Raina": 131.53153153153156,
    "MS Dhoni": 158.70445344129556,
    "JA Morkel": 127.77777777777777,
    "SB Styris": 250,
    "MS Bisla": 81.81818181818183,
    "JH Kallis": 109.84455958549222,
    "YK Pathan": 138.72549019607843,
    "MK Tiwary": 106.84523809523809,
    "EJG Morgan": 113.22314049586777,
    "G Gambhir": 114.19939577039275,
    "LR Shukla": 140,
    "Iqbal Abdulla": 125,
    "R Bhatia": 119.04761904761905,
    "S Dhawan": 126.98412698412697,
    "IR Jaggi": 77.77777777777779,
    "KC Sangakkara": 121.7687074829932,
    "B Chipli": 120.34883720930232,
    "JP Duminy": 116.47727272727273,
    "DT Christian": 118.75,
    "DB Ravi Teja": 124.48979591836735,
    "DW Steyn": 100,
    "A Mishra": 130.76923076923077,
    "I Sharma": 80,
    "AG Paunikar": 81.66666666666667,
    "R Dravid": 109.5846645367412,
    "J Botha": 116.16161616161615,
    "LRPL Taylor": 116.77419354838709,
    "BB McCullum": 122.26027397260273,
    "VVS Laxman": 112.82051282051282,
    "DPMD Jayawardene": 111.15241635687731,
    "BJ Hodge": 116.3265306122449,
    "RA Jadeja": 121.45922746781115,
    "RV Gomez": 95.83333333333334,
    "PA Patel": 107.4468085106383,
    "MA Agarwal": 109.30232558139534,
    "TM Dilshan": 123.49726775956285,
    "V Kohli": 118.25902335456475,
    "AB de Villiers": 127.3469387755102,
    "SS Tiwary": 96.89119170984456,
    "AUK Pathan": 183.33333333333331,
    "DA Warner": 115.71428571428572,
    "V Sehwag": 171.65991902834008,
    "UBT Chand": 66.66666666666666,
    "AJ Finch": 94,
    "NV Ojha": 95.80838323353294,
    "Y Venugopal Rao": 117.07317073170731,
    "IK Pathan": 104.16666666666667,
    "RE van der Merwe": 93.33333333333333,
    "M Morkel": 173.91304347826087,
    "UT Yadav": 100,
    "AB Dinda": 0,
    "DJ Jacobs": 104.54545454545455,
    "SR Tendulkar": 108.64440078585463,
    "AT Rayudu": 111.5819209039548,
    "RG Sharma": 123.58803986710964,
    "AC Gilchrist": 124.35064935064935,
    "SE Marsh": 144.41260744985672,
    "PC Valthaty": 131.90883190883193,
    "KD Karthik": 130.55555555555557,
    "AM Nayar": 96.82539682539682,
    "Sunny Singh": 138.70967741935485,
    "R McLaren": 90,
    "PP Chawla": 94.11764705882352,
    "P Kumar": 84.375,
    "NJ Rimmington": 100,
    "GC Smith": 80.76923076923077,
    "M Manhas": 92.6829268292683,
    "JD Ryder": 145.273631840796,
    "RV Uthappa": 123.94366197183098,
    "Yuvraj Singh": 127.5092936802974,
    "AL Menaria": 114.64968152866241,
    "AM Rahane": 126.3157894736842,
    "S Badrinath": 126.11464968152866,
    "R Vinay Kumar": 104.16666666666667,
    "S Sreesanth": 25,
    "RP Singh": 66.66666666666666,
    "MD Mishra": 111.66666666666667,
    "WD Parnell": 100,
    "R Sharma": 133.33333333333331,
    "S Sohal": 124.50000000000001,
    "Z Khan": 100,
    "CA Pujara": 109.6774193548387,
    "JJ van der Wath": 128.57142857142858,
    "R Ninan": 50,
    "DL Vettori": 76.66666666666667,
    "S Aravind": 162.5,
    "SR Watson": 128.90625,
    "MEK Hussey": 116.31205673758865,
    "MS Gony": 0,
    "MS Wade": 68.75,
    "JR Hopes": 120.98765432098766,
    "FY Fazal": 100,
    "AS Raut": 107.14285714285714,
    "SK Warne": 55.55555555555556,
    "A Singh": 50,
    "SW Tait": 111.11111111111111,
    "SK Trivedi": 0,
    "CL White": 95.41284403669725,
    "Y Nagar": 102.77777777777777,
    "TD Paine": 37.03703703703704,
    "M Kartik": 85.71428571428571,
    "SB Wagh": 66.66666666666666,
    "AC Thomas": 50,
    "JEC Franklin": 138.96103896103895,
    "A Symonds": 94.4055944055944,
    "KM Jadhav": 78.26086956521739,
    "RR Powar": 91.66666666666666,
    "Shakib Al Hasan": 126.08695652173914,
    "B Lee": 62.5,
    "L Balaji": 200,
    "SA Asnodkar": 128.57142857142858,
    "STR Binny": 127.58620689655173,
    "DH Yagnik": 69.56521739130434,
    "R Sathish": 89.28571428571429,
    "KA Pollard": 108.14814814814815,
    "R Ashwin": 50,
    "Joginder Sharma": 0,
    "S Randiv": 66.66666666666666,
    "DE Bollinger": 0,
    "BJ Haddin": 180,
    "CH Gayle": 178.2991202346041,
    "DJ Hussey": 98.46153846153847,
    "RJ Harris": 79.48717948717949,
    "NLTC Perera": 85.18518518518519,
    "M Muralitharan": 62.5,
    "MK Pandey": 106.95652173913044,
    "NL McCullum": 118.18181818181819,
    "JE Taylor": 100,
    "A Mithun": 150,
    "J Syed Mohammad": 136.36363636363635,
    "MR Marsh": 102.04081632653062,
    "SP Goswami": 96.66666666666667,
    "RN ten Doeschate": 140.78947368421052,
    "TR Birt": 131.57894736842107,
    "Harbhajan Singh": 139.1891891891892,
    "SL Malinga": 114.28571428571428,
    "AG Murtaza": 40,
    "M Kaif": 117.14285714285715,
    "Harpreet Singh": 70,
    "M Klinger": 94.8051948051948,
    "B Akhil": 144.44444444444443,
    "Bipul Sharma": 127.77777777777777,
    "AC Blizzard": 136.36363636363635,
    "TL Suman": 122.64150943396226,
    "AA Jhunjhunwala": 58.82352941176471,
    "MV Boucher": 100,
    "I Malhotra": 175,
    "L Ablish": 0,
    "CA Ingram": 80.76923076923077,
    "AB Agarkar": 100,
    "S Nadeem": 0,
    "P Parameswaran": 100,
    "Mandeep Singh": 114.6341463414634,
    "SD Chitnis": 100,
    "SJ Srivastava": 133.33333333333331,
    "CJ Ferguson": 90.56603773584906,
    "SC Ganguly": 86.20689655172413,
    "DS Kulkarni": 50,
    "MM Patel": 0,
    "AB McDonald": 114.28571428571428,
    "OA Shah": 173.33333333333334,
    "LA Pomersbach": 124.39024390243902,
    "KB Arun Karthik": 87.5,
    "MJ Lumb": 0,
    "S Sriram": 57.14285714285714,
    "VR Aaron": 0,
    "PR Shah": 100,
    "JDP Oram": 0,
    "AA Chavan": 100,
    "ND Doshi": 0,
    "B Kumar": 100,
    "CK Langeveldt": 160,
    "WP Saha": 104.61538461538463,
    "Y Gnaneswara Rao": 105.55555555555556,
    "S Rana": 128.57142857142858,
    "BA Bhatt": 0,
    "DJ Bravo": 220.00000000000003,
    "AN Ahmed": 150
  },
  "2012": {
    "F du Plessis": 129.2207792207792,
    "M Vijay": 125.84269662921348,
    "SK Raina": 132.03592814371257,
    "DJ Bravo": 138.43283582089552,
    "JA Morkel": 155.07246376811594,
    "S Badrinath": 104.25531914893618,
    "MS Dhoni": 126.59574468085107,
    "RA Jadeja": 125.6578947368421,
    "R Ashwin": 120,
    "SB Jakati": 77.77777777777779,
    "DE Bollinger": 75,
    "RE Levi": 118.57142857142857,
    "SR Tendulkar": 110.20408163265304,
    "RG Sharma": 124.78386167146974,
    "AT Rayudu": 127.58620689655173,
    "JEC Franklin": 96.49122807017544,
    "BB McCullum": 101.04895104895104,
    "JH Kallis": 104.60358056265984,
    "G Gambhir": 137.85046728971963,
    "MK Tiwary": 105.26315789473684,
    "YK Pathan": 111.49425287356323,
    "DB Das": 131.25,
    "LR Shukla": 131.57894736842107,
    "R Bhatia": 116.66666666666667,
    "B Lee": 200,
    "Iqbal Abdulla": 66.66666666666666,
    "AJ Finch": 105.76923076923077,
    "V Sehwag": 156.15141955835963,
    "IK Pathan": 132.33082706766916,
    "GJ Maxwell": 60,
    "MK Pandey": 130,
    "WD Parnell": 73.07692307692307,
    "SC Ganguly": 93.37979094076655,
    "RV Uthappa": 113.4453781512605,
    "CJ Ferguson": 80.64516129032258,
    "SPD Smith": 133.08823529411765,
    "MN Samuels": 100,
    "B Kumar": 97.5609756097561,
    "M Kartik": 123.80952380952381,
    "KD Karthik": 109.6774193548387,
    "SA Yadav": 0,
    "KA Pollard": 135.80246913580248,
    "Harbhajan Singh": 131.70731707317074,
    "SL Malinga": 100,
    "PP Ojha": 66.66666666666666,
    "MM Patel": 33.33333333333333,
    "R Dravid": 108.96226415094338,
    "AM Rahane": 125.84269662921348,
    "AL Menaria": 107.84313725490196,
    "BJ Hodge": 136.11111111111111,
    "OA Shah": 126.39405204460968,
    "KK Cooper": 190,
    "AC Gilchrist": 117.8082191780822,
    "PC Valthaty": 60,
    "SE Marsh": 116.66666666666667,
    "AM Nayar": 93.75,
    "Mandeep Singh": 123.78223495702005,
    "DJ Hussey": 126.51757188498402,
    "Bipul Sharma": 156.52173913043478,
    "PP Chawla": 120.45454545454545,
    "JP Faulkner": 100,
    "P Kumar": 112.90322580645163,
    "Harmeet Singh": 214.28571428571428,
    "AB McDonald": 134.28571428571428,
    "CA Pujara": 80.95238095238095,
    "V Kohli": 109.30930930930931,
    "AB de Villiers": 157.14285714285714,
    "SS Tiwary": 111.04651162790698,
    "MA Agarwal": 138.03680981595093,
    "DL Vettori": 110.71428571428572,
    "R Vinay Kumar": 107.93650793650794,
    "HV Patel": 100,
    "NV Ojha": 110.86956521739131,
    "Y Venugopal Rao": 102.32558139534885,
    "Y Nagar": 115.90909090909092,
    "DAJ Bracewell": 150,
    "M Morkel": 60,
    "DJ Harris": 107.76699029126213,
    "S Dhawan": 127.29306487695749,
    "PA Patel": 117.57575757575758,
    "CL White": 146.48318042813455,
    "B Chipli": 112.12121212121211,
    "DT Christian": 118.85245901639345,
    "MS Gony": 66.66666666666666,
    "DB Ravi Teja": 200,
    "DW Steyn": 100,
    "Ankit Sharma": 138.46153846153845,
    "SP Goswami": 100,
    "SP Narine": 128.57142857142858,
    "JD Ryder": 118.5185185185185,
    "R Sharma": 28.57142857142857,
    "AD Mascarenhas": 87.5,
    "KC Sangakkara": 105.82010582010581,
    "A Mishra": 84.21052631578947,
    "TL Suman": 93.75,
    "MS Bisla": 125.29411764705883,
    "RN ten Doeschate": 105,
    "Shakib Al Hasan": 118.18181818181819,
    "CH Gayle": 155.29661016949152,
    "Z Khan": 70.58823529411765,
    "KP Pietersen": 145.23809523809524,
    "DPMD Jayawardene": 110.56105610561056,
    "J Botha": 107.40740740740742,
    "AA Chavan": 137.5,
    "A Singh": 0,
    "SK Trivedi": 83.33333333333334,
    "GB Hogg": 107.14285714285714,
    "RR Bhatkal": 0,
    "AD Mathews": 118.69158878504673,
    "M Manhas": 121.21212121212122,
    "A Nehra": 91.66666666666666,
    "AB Dinda": 40,
    "JP Duminy": 125.77319587628865,
    "AA Jhunjhunwala": 100,
    "LRPL Taylor": 111.2994350282486,
    "P Dogra": 60,
    "BA Bhatt": 600,
    "M Kaif": 93.33333333333333,
    "S Aravind": 175,
    "M Muralitharan": 75,
    "DJ Jacobs": 0,
    "CJ McKay": 66.66666666666666,
    "RP Singh": 75,
    "DH Yagnik": 178.57142857142858,
    "TM Dilshan": 104.39560439560441,
    "DA Warner": 161.00628930817612,
    "N Saini": 97.9020979020979,
    "DA Miller": 128.94736842105263,
    "Azhar Mahmood": 128.2758620689655,
    "P Negi": 124.13793103448276,
    "NLTC Perera": 33.33333333333333,
    "IR Jaggi": 68.18181818181817,
    "STR Binny": 134.32835820895522,
    "RJ Peterson": 100,
    "AC Thomas": 126.66666666666666,
    "AC Blizzard": 0,
    "WP Saha": 54.54545454545454,
    "KMDN Kulasekara": 166.66666666666669,
    "A Ashish Reddy": 129.62962962962962,
    "V Pratap Singh": 0,
    "MEK Hussey": 109.20502092050208,
    "BB Samantray": 100,
    "MJ Clarke": 102.08333333333333,
    "SR Watson": 150,
    "AUK Pathan": 75,
    "Gurkeerat Singh": 159.25925925925927,
    "RJ Harris": 200,
    "DR Smith": 155.44554455445544,
    "J Syed Mohammad": 400,
    "S Nadeem": 0,
    "VR Aaron": 33.33333333333333,
    "AP Majumdar": 114.4736842105263,
    "SD Chitnis": 103.125,
    "PA Reddy": 115.87301587301589,
    "J Theron": 175,
    "S Anirudha": 237.5,
    "MD Mishra": 200,
    "K Upadhyay": 137.5,
    "HH Gibbs": 94.18604651162791,
    "P Awana": 100,
    "UBT Chand": 105.88235294117648,
    "AD Russell": 174.07407407407408,
    "UT Yadav": 40,
    "A Chandila": 0,
    "CA Lynn": 75,
    "Harpreet Singh": 100,
    "AG Murtaza": 75,
    "P Parameswaran": 0,
    "DS Kulkarni": 200,
    "Sunny Gupta": 0
  },
  "2013": {
    "UBT Chand": 99.37106918238993,
    "DPMD Jayawardene": 102.79503105590062,
    "DA Warner": 123.86706948640483,
    "MC Juneja": 93.28358208955224,
    "NV Ojha": 100,
    "J Botha": 82.6923076923077,
    "IK Pathan": 96.22641509433963,
    "AD Russell": 91.66666666666666,
    "S Nadeem": 56.00000000000001,
    "A Nehra": 25,
    "MS Bisla": 105.8091286307054,
    "G Gambhir": 114.68926553672316,
    "JH Kallis": 95.6923076923077,
    "MK Tiwary": 103.54609929078013,
    "EJG Morgan": 123.79032258064515,
    "YK Pathan": 136.0655737704918,
    "CH Gayle": 149.37759336099586,
    "TM Dilshan": 85.39325842696628,
    "V Kohli": 135.66878980891718,
    "MA Agarwal": 109.8360655737705,
    "DT Christian": 42.857142857142854,
    "KK Nair": 100,
    "KB Arun Karthik": 102.49999999999999,
    "RT Ponting": 70.27027027027027,
    "SR Tendulkar": 118.59504132231405,
    "KD Karthik": 121.14014251781472,
    "RG Sharma": 130.26634382566587,
    "AT Rayudu": 112.7659574468085,
    "Harbhajan Singh": 141.46341463414635,
    "KA Pollard": 144.82758620689654,
    "PA Reddy": 87.5,
    "PA Patel": 112.64367816091954,
    "KC Sangakkara": 89.55223880597015,
    "CL White": 113.5678391959799,
    "NLTC Perera": 135.83815028901734,
    "GH Vihari": 83.97212543554006,
    "A Ashish Reddy": 138.88888888888889,
    "DB Ravi Teja": 77.77777777777779,
    "RV Uthappa": 113.02083333333333,
    "MK Pandey": 98.55072463768117,
    "MN Samuels": 61.53846153846154,
    "Yuvraj Singh": 123.95833333333333,
    "LRPL Taylor": 81.81818181818183,
    "AM Nayar": 90.41095890410958,
    "MR Marsh": 128.44036697247708,
    "AD Mathews": 121.98581560283688,
    "B Kumar": 72.22222222222221,
    "R Sharma": 68.75,
    "AB Dinda": 112.5,
    "MDKJ Perera": 116.66666666666667,
    "AM Rahane": 103.82978723404254,
    "R Dravid": 109.02777777777777,
    "STR Binny": 144.3349753694581,
    "BJ Hodge": 130.80357142857142,
    "AL Menaria": 50,
    "KK Cooper": 177.27272727272728,
    "R Shukla": 100,
    "DR Smith": 119.77077363896849,
    "MEK Hussey": 126.37931034482759,
    "M Vijay": 106.48464163822527,
    "SK Raina": 148.1081081081081,
    "DJ Bravo": 109.009009009009,
    "S Badrinath": 100.8130081300813,
    "MS Dhoni": 154.6979865771812,
    "RA Jadeja": 145.65217391304347,
    "R Ashwin": 72.91666666666666,
    "B Laughlin": 57.14285714285714,
    "AS Rajpoot": 50,
    "TL Suman": 96.29629629629629,
    "AC Gilchrist": 125.64102564102564,
    "Mandeep Singh": 115.04424778761062,
    "M Vohra": 138.79310344827587,
    "DJ Hussey": 111.90476190476191,
    "MC Henriques": 130.95238095238096,
    "R Vinay Kumar": 159.0909090909091,
    "M Kartik": 66.66666666666666,
    "JD Unadkat": 100,
    "DW Steyn": 143.24324324324326,
    "SR Watson": 140.67357512953367,
    "DH Yagnik": 128.8659793814433,
    "S Sreesanth": 33.33333333333333,
    "LR Shukla": 25,
    "R Bhatia": 123.75,
    "B Lee": 210,
    "Mohammed Shami": 62.5,
    "SP Narine": 105,
    "BMAJ Mendis": 92,
    "KM Jadhav": 119.68503937007875,
    "M Morkel": 190,
    "UT Yadav": 100,
    "Gurkeerat Singh": 110.20408163265304,
    "Azhar Mahmood": 124.0506329113924,
    "R Sathish": 139.74358974358972,
    "PP Chawla": 106.66666666666667,
    "RJ Harris": 66.66666666666666,
    "P Kumar": 120.51282051282051,
    "P Awana": 11.11111111111111,
    "R McLaren": 60,
    "PJ Sangwan": 400,
    "AB de Villiers": 167.2645739910314,
    "JP Faulkner": 101.78571428571428,
    "AJ Finch": 133.33333333333331,
    "V Sehwag": 120.9016393442623,
    "A Mishra": 89,
    "R Rampaul": 115.15151515151516,
    "CH Morris": 82.35294117647058,
    "KV Sharma": 95.50561797752809,
    "SV Samson": 115.73033707865167,
    "SPD Smith": 118.65671641791045,
    "S Anirudha": 0,
    "JA Morkel": 127.77777777777777,
    "DA Miller": 163.28125,
    "MS Gony": 166.66666666666669,
    "DB Das": 100,
    "SMSM Senanayake": 58.82352941176471,
    "BJ Rohrer": 133.10344827586206,
    "KL Rahul": 166.66666666666669,
    "AB McDonald": 0,
    "J Syed Mohammad": 76.92307692307693,
    "Q de Kock": 42.857142857142854,
    "BB Samantray": 113.88888888888889,
    "R Dhawan": 116.66666666666667,
    "MG Johnson": 114.70588235294117,
    "SL Malinga": 69.23076923076923,
    "PP Ojha": 50,
    "AB Agarkar": 80,
    "PC Valthaty": 46.15384615384615,
    "AD Mascarenhas": 125,
    "L Balaji": 100,
    "A Chandila": 66.66666666666666,
    "SW Tait": 50,
    "SK Trivedi": 75,
    "SS Tiwary": 102.8301886792453,
    "LJ Wright": 168.25396825396825,
    "M Manhas": 92.85714285714286,
    "AG Murtaza": 125,
    "IC Pandey": 0,
    "SE Marsh": 118.11023622047243,
    "CM Gautam": 125.71428571428571,
    "S Dhawan": 118.70229007633588,
    "X Thalaivan Sargunam": 62.5,
    "DJG Sammy": 127.94117647058823,
    "WP Saha": 125,
    "BB McCullum": 150,
    "A Mukund": 86.36363636363636,
    "OA Shah": 104.16666666666667,
    "KW Richardson": 97.14285714285714,
    "S Narwal": 143.75,
    "LA Pomersbach": 100,
    "BAW Mendis": 66.66666666666666,
    "CA Pujara": 92.92929292929293,
    "MM Sharma": 0,
    "Iqbal Abdulla": 61.53846153846154,
    "RN ten Doeschate": 139.34426229508196,
    "UA Birla": 46.666666666666664,
    "M Rawat": 62.5,
    "WD Parnell": 71.42857142857143,
    "Parvez Rasool": 62.5,
    "K Upadhyay": 100,
    "GJ Maxwell": 133.33333333333331,
    "Harmeet Singh": 75,
    "Sandeep Sharma": 0,
    "A Mithun": 100,
    "RE van der Merwe": 88,
    "S Kaul": 100,
    "AP Tare": 146.42857142857142,
    "Sachin Baby": 50,
    "PV Tambe": 75,
    "NM Coulter-Nile": 150,
    "RV Gomez": 400,
    "B Chipli": 88.88888888888889,
    "P Dogra": 71.42857142857143
  },
  "2014": {
    "G Gambhir": 118.37455830388693,
    "JH Kallis": 115.2671755725191,
    "MK Pandey": 114.24581005586592,
    "RV Uthappa": 136.08247422680412,
    "YK Pathan": 159.52380952380955,
    "Shakib Al Hasan": 144.0251572327044,
    "SA Yadav": 133.33333333333331,
    "MEK Hussey": 111.76470588235294,
    "AP Tare": 123.52941176470588,
    "AT Rayudu": 122.37288135593221,
    "RG Sharma": 127.0358306188925,
    "KA Pollard": 132.5242718446602,
    "CJ Anderson": 144.02173913043478,
    "Harbhajan Singh": 133.33333333333331,
    "CM Gautam": 105.21739130434781,
    "MA Agarwal": 126.37362637362637,
    "M Vijay": 106.70103092783505,
    "KD Karthik": 126.45914396887159,
    "MK Tiwary": 124.59016393442623,
    "JP Duminy": 133.98692810457516,
    "LRPL Taylor": 100,
    "PA Patel": 109.04255319148936,
    "NJ Maddinson": 114.28571428571428,
    "V Kohli": 119.26910299003322,
    "Yuvraj Singh": 130.55555555555557,
    "DR Smith": 133.1764705882353,
    "BB McCullum": 118.76832844574781,
    "SK Raina": 141.35135135135135,
    "MS Dhoni": 143.7984496124031,
    "DJ Bravo": 266.66666666666663,
    "CA Pujara": 97.65625,
    "V Sehwag": 136.22754491017963,
    "GJ Maxwell": 176.9230769230769,
    "AR Patel": 103.33333333333334,
    "DA Miller": 145.27687296416937,
    "GJ Bailey": 135.26315789473685,
    "AJ Finch": 116.16541353383458,
    "DA Warner": 137.8590078328982,
    "S Dhawan": 114.9390243902439,
    "KL Rahul": 100.60606060606061,
    "DJG Sammy": 111.34020618556701,
    "Y Venugopal Rao": 109.23076923076923,
    "KV Sharma": 150,
    "AM Nayar": 86,
    "SV Samson": 122.82608695652173,
    "AM Rahane": 114.14141414141415,
    "SR Watson": 120,
    "STR Binny": 100.81967213114753,
    "BJ Hodge": 140.27777777777777,
    "R Bhatia": 121.81818181818183,
    "JP Faulkner": 182.82828282828282,
    "Z Khan": 160,
    "SL Malinga": 100,
    "PP Ojha": 57.14285714285714,
    "JJ Bumrah": 25,
    "AB de Villiers": 156.12648221343875,
    "JDS Neesham": 95.45454545454545,
    "SPD Smith": 132.17391304347825,
    "WP Saha": 141.9607843137255,
    "F du Plessis": 127.84810126582278,
    "RA Jadeja": 129.20353982300884,
    "M Manhas": 134.6153846153846,
    "R Ashwin": 93.75,
    "S Nadeem": 41.17647058823529,
    "Mohammed Shami": 37.5,
    "JD Unadkat": 50,
    "MG Johnson": 116.66666666666667,
    "IK Pathan": 96.49122807017544,
    "DW Steyn": 84.61538461538461,
    "A Mishra": 66.66666666666666,
    "B Kumar": 33.33333333333333,
    "TG Southee": 133.33333333333331,
    "DS Kulkarni": 129.62962962962962,
    "PV Tambe": 55.55555555555556,
    "CA Lynn": 111.53846153846155,
    "R Vinay Kumar": 66.66666666666666,
    "YV Takawale": 116.85393258426966,
    "JA Morkel": 109.75609756097562,
    "Q de Kock": 115.90909090909092,
    "KP Pietersen": 125.1063829787234,
    "S Rana": 110.6060606060606,
    "MA Starc": 101.19047619047619,
    "R Rampaul": 108.33333333333333,
    "AB Dinda": 44.44444444444444,
    "KK Nair": 140.4255319148936,
    "R Dhawan": 109.33333333333333,
    "L Balaji": 100,
    "Sandeep Sharma": 50,
    "PP Chawla": 182.35294117647058,
    "SP Narine": 66.66666666666666,
    "UT Yadav": 66.66666666666666,
    "M Morkel": 100,
    "KM Jadhav": 144.6601941747573,
    "CH Gayle": 104.25531914893618,
    "VR Aaron": 116.66666666666667,
    "MS Bisla": 33.33333333333333,
    "NV Ojha": 136.47058823529412,
    "BR Dunk": 114.28571428571428,
    "AD Russell": 40,
    "RR Rossouw": 97.5,
    "HV Patel": 216.66666666666666,
    "RN ten Doeschate": 162.5,
    "LR Shukla": 86.11111111111111,
    "Mandeep Singh": 100,
    "MC Henriques": 64.28571428571429,
    "KW Richardson": 50,
    "Shivam Sharma": 166.66666666666669,
    "YS Chahal": 100,
    "R Shukla": 90,
    "LMP Simmons": 132.65993265993265,
    "VH Zol": 126.08695652173914,
    "Ankit Sharma": 125.92592592592592,
    "DH Yagnik": 66.66666666666666,
    "M Vohra": 133.33333333333331,
    "KK Cooper": 139.28571428571428,
    "BCJ Cutting": 133.33333333333331,
    "Imran Tahir": 88.88888888888889,
    "S Kaul": 100,
    "DJ Hussey": 126.08695652173914,
    "AN Ahmed": 400,
    "UBT Chand": 28.57142857142857,
    "WD Parnell": 100,
    "SE Marsh": 145.83333333333331,
    "BE Hendricks": 0,
    "S Gopal": 110.00000000000001,
    "M de Lange": 50,
    "R Tewatia": 123.07692307692308,
    "VS Malik": 100,
    "S Anirudha": 75,
    "JO Holder": 177.77777777777777,
    "Karanveer Singh": 100,
    "P Kumar": 50,
    "MM Sharma": 100
  },
  "2015": {
    "RG Sharma": 142.60355029585799,
    "AJ Finch": 69.6969696969697,
    "AP Tare": 82.35294117647058,
    "AT Rayudu": 151.0752688172043,
    "CJ Anderson": 126.66666666666666,
    "RV Uthappa": 126.82926829268293,
    "G Gambhir": 114.73684210526316,
    "MK Pandey": 120.96774193548387,
    "SA Yadav": 137.71929824561403,
    "YK Pathan": 128.92561983471074,
    "DR Smith": 117.3529411764706,
    "BB McCullum": 148.80546075085323,
    "SK Raina": 117.24137931034481,
    "F du Plessis": 119.87381703470032,
    "RA Jadeja": 103.93700787401573,
    "MS Dhoni": 120.3883495145631,
    "DJ Bravo": 129.13907284768212,
    "R Ashwin": 162.5,
    "MM Sharma": 155.55555555555557,
    "MA Agarwal": 115.76086956521738,
    "CM Gautam": 80,
    "JA Morkel": 122.85714285714286,
    "SS Iyer": 121.94444444444446,
    "KM Jadhav": 135,
    "Yuvraj Singh": 115.34883720930233,
    "JP Duminy": 126.60550458715596,
    "NM Coulter-Nile": 100,
    "A Mishra": 66.66666666666666,
    "Imran Tahir": 83.33333333333334,
    "AM Rahane": 131.70731707317074,
    "SV Samson": 122.89156626506023,
    "SPD Smith": 131.27753303964758,
    "KK Nair": 126.57342657342659,
    "STR Binny": 108.8235294117647,
    "JP Faulkner": 125.21739130434784,
    "DJ Hooda": 152.52525252525254,
    "CH Morris": 161.70212765957444,
    "V Sehwag": 115.11627906976744,
    "WP Saha": 121.46341463414633,
    "M Vijay": 108.1896551724138,
    "GJ Maxwell": 126.95652173913044,
    "AR Patel": 115.73033707865167,
    "DA Miller": 133.7078651685393,
    "GJ Bailey": 132.82051282051282,
    "MG Johnson": 93.93939393939394,
    "Anureet Singh": 66.66666666666666,
    "Karanveer Singh": 73.33333333333333,
    "DA Warner": 152.7173913043478,
    "S Dhawan": 120.47781569965869,
    "KL Rahul": 106.76691729323309,
    "NV Ojha": 108.73015873015872,
    "RS Bopara": 120.83333333333333,
    "KS Williamson": 106.89655172413792,
    "KV Sharma": 119.54022988505749,
    "Parvez Rasool": 100,
    "AD Russell": 187.35632183908046,
    "Shakib Al Hasan": 124.13793103448276,
    "CH Gayle": 137.15083798882682,
    "V Kohli": 129.15601023017902,
    "KD Karthik": 118.4873949579832,
    "Mandeep Singh": 155.44554455445544,
    "AB de Villiers": 170.43189368770763,
    "DJG Sammy": 72.22222222222221,
    "SA Abbott": 150,
    "HV Patel": 146.15384615384613,
    "AN Ahmed": 200,
    "AD Mathews": 134.57943925233644,
    "TG Southee": 162.5,
    "R Dhawan": 109.09090909090908,
    "KA Pollard": 155.76208178438662,
    "J Suchith": 160,
    "Harbhajan Singh": 144.44444444444443,
    "VR Aaron": 300,
    "YS Chahal": 100,
    "PA Patel": 132.94117647058823,
    "UBT Chand": 117.24137931034481,
    "S Gopal": 100,
    "P Negi": 150.64935064935065,
    "A Nehra": 20,
    "RG More": 100,
    "EJG Morgan": 125.503355704698,
    "A Ashish Reddy": 162.22222222222223,
    "LMP Simmons": 119.20529801324504,
    "R Vinay Kumar": 0,
    "P Kumar": 68,
    "NLTC Perera": 85.71428571428571,
    "Gurkeerat Singh": 85.36585365853658,
    "RN ten Doeschate": 138.63636363636365,
    "PP Chawla": 110.20408163265304,
    "SR Watson": 128.99628252788105,
    "HH Pandya": 164.70588235294116,
    "MS Bisla": 127.58620689655173,
    "RR Rossouw": 155.55555555555557,
    "D Wiese": 137.07865168539325,
    "Iqbal Abdulla": 117.64705882352942,
    "MK Tiwary": 98.27586206896551,
    "SE Marsh": 145.3125,
    "MC Henriques": 134.11214953271028,
    "SN Khan": 156.33802816901408,
    "MA Starc": 78.57142857142857,
    "MJ McClenaghan": 260,
    "SL Malinga": 120,
    "DS Kulkarni": 33.33333333333333,
    "PV Tambe": 75,
    "GH Vihari": 108.33333333333333,
    "DW Steyn": 166.66666666666669,
    "B Kumar": 188.88888888888889,
    "Sandeep Sharma": 81.81818181818183,
    "S Nadeem": 33.33333333333333,
    "DJ Muthuswami": 33.33333333333333,
    "M Vohra": 100,
    "J Botha": 206.66666666666669,
    "SS Tiwary": 132.9268292682927,
    "PJ Cummins": 0,
    "UT Yadav": 193.33333333333334,
    "GB Hogg": 116.66666666666667,
    "SN Thakur": 116.66666666666667,
    "J Theron": 100,
    "NJ Maddinson": 80,
    "Bipul Sharma": 100,
    "SP Narine": 0,
    "Q de Kock": 158.44155844155844,
    "R Bhatia": 0,
    "Ankit Sharma": 140,
    "BE Hendricks": 100,
    "MEK Hussey": 105.47945205479452,
    "Azhar Mahmood": 120,
    "M Morkel": 133.33333333333331,
    "S Aravind": 0
  },
  "2016": {
    "LMP Simmons": 100,
    "RG Sharma": 131.80592991913747,
    "HH Pandya": 74.57627118644068,
    "JC Buttler": 136.36363636363635,
    "AT Rayudu": 118.86120996441281,
    "KA Pollard": 140.54054054054055,
    "S Gopal": 20,
    "Harbhajan Singh": 103.37078651685394,
    "R Vinay Kumar": 118.18181818181819,
    "MJ McClenaghan": 147.82608695652172,
    "AM Rahane": 124.03100775193798,
    "F du Plessis": 122.61904761904762,
    "KP Pietersen": 121.66666666666666,
    "MA Agarwal": 103.84615384615385,
    "Q de Kock": 131.26843657817108,
    "SS Iyer": 69.76744186046511,
    "KK Nair": 118.6046511627907,
    "SV Samson": 109.81132075471697,
    "P Negi": 96.61016949152543,
    "CR Brathwaite": 212.82051282051282,
    "CH Morris": 171.05263157894737,
    "NM Coulter-Nile": 81.81818181818183,
    "A Mishra": 30.76923076923077,
    "Z Khan": 100,
    "RV Uthappa": 133.5593220338983,
    "G Gambhir": 118.43971631205675,
    "MK Pandey": 131.91489361702128,
    "M Vijay": 121.44772117962465,
    "M Vohra": 120.1492537313433,
    "DA Miller": 116.66666666666667,
    "GJ Maxwell": 138.75968992248062,
    "WP Saha": 126.16822429906543,
    "MP Stoinis": 131.53153153153156,
    "AR Patel": 137.03703703703704,
    "AJ Finch": 127.59740259740259,
    "BB McCullum": 130.62730627306274,
    "SK Raina": 124.6875,
    "KD Karthik": 122.71062271062272,
    "RA Jadeja": 102.68817204301075,
    "Ishan Kishan": 102.4390243902439,
    "DJ Bravo": 112.5,
    "CH Gayle": 143.67088607594937,
    "V Kohli": 149.23312883435582,
    "AB de Villiers": 165.94202898550725,
    "SR Watson": 132.5925925925926,
    "KM Jadhav": 127.27272727272727,
    "SN Khan": 212.9032258064516,
    "DA Warner": 146.71280276816609,
    "S Dhawan": 114.3835616438356,
    "MC Henriques": 112.34567901234568,
    "NV Ojha": 99.27007299270073,
    "DJ Hooda": 116.12903225806453,
    "EJG Morgan": 117.14285714285715,
    "A Ashish Reddy": 156.66666666666666,
    "KV Sharma": 109.09090909090908,
    "AD Russell": 150.4,
    "YK Pathan": 141.015625,
    "C Munro": 96.7741935483871,
    "SA Yadav": 122.97297297297298,
    "PA Patel": 110.625,
    "SPD Smith": 146.73913043478262,
    "MS Dhoni": 129.0909090909091,
    "MR Marsh": 70,
    "R Bhatia": 188.88888888888889,
    "SE Marsh": 119.54887218045114,
    "MG Johnson": 38.46153846153847,
    "MM Sharma": 123.07692307692308,
    "P Sahu": 158.33333333333331,
    "Sandeep Sharma": 100,
    "B Kumar": 165.3846153846154,
    "KH Pandya": 188.0952380952381,
    "TG Southee": 150,
    "AD Nath": 74.07407407407408,
    "JP Faulkner": 128.33333333333334,
    "P Kumar": 96,
    "DS Kulkarni": 168.75,
    "NLTC Perera": 154.63917525773198,
    "IK Pathan": 78.57142857142857,
    "R Ashwin": 110.8108108108108,
    "D Wiese": 125,
    "JP Duminy": 122.43589743589745,
    "MJ Guptill": 105.55555555555556,
    "KJ Abbott": 162.5,
    "Shakib Al Hasan": 106.54205607476635,
    "KL Rahul": 143.84057971014494,
    "TM Head": 138.46153846153845,
    "STR Binny": 153.65853658536585,
    "KW Richardson": 100,
    "DW Steyn": 50,
    "Ankit Sharma": 150,
    "M Ashwin": 0,
    "NS Naik": 69.6969696969697,
    "R Dhawan": 233.33333333333334,
    "AP Tare": 80,
    "DR Smith": 144,
    "JA Morkel": 177.77777777777777,
    "R Sathish": 104.34782608695652,
    "PP Chawla": 103.84615384615385,
    "UT Yadav": 180,
    "Bipul Sharma": 212.5,
    "RR Pant": 128.57142857142858,
    "CA Lynn": 119.04761904761905,
    "SS Tiwary": 114.86486486486487,
    "SW Billings": 135.3846153846154,
    "Mohammed Shami": 66.66666666666666,
    "JO Holder": 115.78947368421053,
    "SP Narine": 50,
    "KS Williamson": 100,
    "Sachin Baby": 145.1219512195122,
    "Parvez Rasool": 111.11111111111111,
    "Gurkeerat Singh": 137.80487804878047,
    "KC Cariappa": 130,
    "PSP Handscomb": 66.66666666666666,
    "Swapnil Singh": 0,
    "J Yadav": 75,
    "UT Khawaja": 120.95238095238095,
    "Yuvraj Singh": 130.38674033149172,
    "GJ Bailey": 94.3820224719101,
    "HM Amla": 131.9327731092437,
    "JJ Bumrah": 72.72727272727273,
    "F Behardien": 107.6923076923077,
    "BB Sran": 100,
    "A Zampa": 0,
    "N Rana": 140.54054054054055,
    "A Nehra": 100,
    "UBT Chand": 0,
    "PV Tambe": 41.17647058823529,
    "S Kaushik": 0,
    "BCJ Cutting": 180.55555555555557,
    "S Nadeem": 33.33333333333333,
    "Imran Tahir": 71.42857142857143,
    "M Morkel": 100,
    "ER Dwivedi": 160,
    "SB Jakati": 100,
    "Iqbal Abdulla": 137.03703703703704,
    "CJ Jordan": 75
  },
  "2017": {
    "DA Warner": 139.34782608695653,
    "S Dhawan": 125.72178477690288,
    "MC Henriques": 135.7843137254902,
    "Yuvraj Singh": 134.04255319148936,
    "DJ Hooda": 147.16981132075472,
    "BCJ Cutting": 188.88888888888889,
    "CH Gayle": 116.27906976744187,
    "Mandeep Singh": 106.81818181818181,
    "TM Head": 138.5321100917431,
    "KM Jadhav": 138.3419689119171,
    "SR Watson": 88.75,
    "Sachin Baby": 93.75,
    "STR Binny": 101.29870129870129,
    "S Aravind": 86.48648648648648,
    "YS Chahal": 56.52173913043478,
    "TS Mills": 80,
    "A Choudhary": 125,
    "PA Patel": 129.08496732026146,
    "JC Buttler": 146.7741935483871,
    "RG Sharma": 120.21660649819495,
    "N Rana": 120.21660649819495,
    "AT Rayudu": 113.75,
    "KH Pandya": 130.64516129032256,
    "KA Pollard": 134.35374149659864,
    "HH Pandya": 146.19883040935673,
    "TG Southee": 233.33333333333334,
    "AM Rahane": 116.46341463414633,
    "MA Agarwal": 89.65517241379311,
    "SPD Smith": 118.29573934837092,
    "BA Stokes": 139.8230088495575,
    "MS Dhoni": 111.11111111111111,
    "JJ Roy": 147.5,
    "BB McCullum": 140.96916299559473,
    "SK Raina": 143.04207119741102,
    "AJ Finch": 157.89473684210526,
    "KD Karthik": 135.20599250936328,
    "G Gambhir": 122.96296296296296,
    "CA Lynn": 169.54022988505747,
    "MK Tiwary": 133.88429752066116,
    "DT Christian": 154.90196078431373,
    "HM Amla": 142.85714285714286,
    "M Vohra": 134.7058823529412,
    "WP Saha": 121.24352331606218,
    "AR Patel": 132.7485380116959,
    "GJ Maxwell": 166.66666666666669,
    "DA Miller": 101.21951219512195,
    "Vishnu Vinod": 73.07692307692307,
    "Iqbal Abdulla": 83.33333333333334,
    "P Negi": 128.57142857142858,
    "AP Tare": 81.81818181818183,
    "SW Billings": 130.18867924528303,
    "KK Nair": 123.24561403508771,
    "SV Samson": 140.36363636363635,
    "RR Pant": 161.94690265486727,
    "CH Morris": 158.76288659793815,
    "CR Brathwaite": 85.71428571428571,
    "PJ Cummins": 145.2830188679245,
    "A Mishra": 90.74074074074075,
    "S Nadeem": 33.33333333333333,
    "Z Khan": 30.76923076923077,
    "DR Smith": 151.26582278481013,
    "DS Kulkarni": 50,
    "P Kumar": 88.88888888888889,
    "Basil Thampi": 93.33333333333333,
    "RV Uthappa": 163.0252100840336,
    "MK Pandey": 126.51757188498402,
    "YK Pathan": 120.16806722689076,
    "SA Yadav": 117.97752808988764,
    "CR Woakes": 100,
    "SP Narine": 165.92592592592592,
    "Harbhajan Singh": 94.11764705882352,
    "AB de Villiers": 126.3157894736842,
    "CJ Anderson": 111.81102362204724,
    "F du Plessis": 114.28571428571428,
    "RA Tripathi": 142.1818181818182,
    "R Bhatia": 94.11764705882352,
    "DL Chahar": 280,
    "A Zampa": 83.33333333333334,
    "AB Dinda": 100,
    "Imran Tahir": 0,
    "NV Ojha": 114.4927536231884,
    "V Shankar": 131.1688311688312,
    "Rashid Khan": 122.22222222222223,
    "B Kumar": 100,
    "MP Stoinis": 70.83333333333334,
    "MM Sharma": 100,
    "VR Aaron": 36.36363636363637,
    "V Kohli": 120.3125,
    "MJ McClenaghan": 106.66666666666667,
    "Ankit Sharma": 166.66666666666669,
    "SN Thakur": 0,
    "RD Chahar": 150,
    "LH Ferguson": 100,
    "C de Grandhomme": 140,
    "Bipul Sharma": 134.7826086956522,
    "SS Iyer": 136.8421052631579,
    "EJG Morgan": 108.33333333333333,
    "KC Cariappa": 28.57142857142857,
    "Sandeep Sharma": 100,
    "Ishan Kishan": 131.27962085308056,
    "JD Unadkat": 66.66666666666666,
    "AF Milne": 58.333333333333336,
    "S Badree": 61.904761904761905,
    "AD Mathews": 114.28571428571428,
    "Mohammed Shami": 156.52173913043478,
    "Mohammad Nabi": 100,
    "I Sharma": 61.53846153846154,
    "RA Jadeja": 138.5964912280702,
    "AJ Tye": 182.75862068965517,
    "KS Williamson": 150.58823529411765,
    "SE Marsh": 134.01015228426397,
    "Shakib Al Hasan": 100,
    "JP Faulkner": 90,
    "MG Johnson": 117.64705882352942,
    "K Rabada": 84.61538461538461,
    "AD Nath": 0,
    "NM Coulter-Nile": 107.6923076923077,
    "Kuldeep Yadav": 95.23809523809523,
    "UT Yadav": 83.33333333333334,
    "Washington Sundar": 75,
    "KV Sharma": 116.66666666666667,
    "DM Bravo": 150,
    "AR Bawne": 100,
    "SP Jackson": 122.58064516129032,
    "MJ Guptill": 151.72413793103448,
    "Anureet Singh": 125,
    "IK Pathan": 66.66666666666666,
    "Ankit Soni": 77.77777777777779,
    "JJ Bumrah": 145.45454545454547,
    "SL Malinga": 350,
    "PJ Sangwan": 50,
    "S Kaul": 0,
    "LMP Simmons": 120.17543859649122,
    "MN Samuels": 100,
    "Swapnil Singh": 63.1578947368421,
    "R Tewatia": 190,
    "MM Patel": 0,
    "SS Tiwary": 120.93023255813952,
    "TA Boult": 62.5,
    "CJ Jordan": 0,
    "IR Jaggi": 86.8421052631579,
    "PP Chawla": 33.33333333333333,
    "AS Rajpoot": 57.14285714285714
  }
}