{
  "2008": {
    "SE Marsh": 5,
    "SR Watson": 4,
    "YK Pathan": 4,
    "V Sehwag": 2,
    "AC Gilchrist": 2
  },
  "2009": {
    "YK Pathan": 3,
    "SR Tendulkar": 2,
    "M Muralitharan": 2,
    "AC Gilchrist": 2,
    "AB de Villiers": 2
  },
  "2010": {
    "SR Tendulkar": 4,
    "JH Kallis": 3,
    "A Symonds": 3,
    "YK Pathan": 2,
    "G Gambhir": 2
  },
  "2011": {
    "CH Gayle": 6,
    "MEK Hussey": 3,
    "SL Malinga": 2,
    "SK Warne": 2,
    "PC Valthaty": 2
  },
  "2012": {
    "CH Gayle": 5,
    "AB de Villiers": 3,
    "SP Narine": 3,
    "G Gambhir": 3,
    "V Sehwag": 3
  },
  "2013": {
    "MEK Hussey": 5,
    "A Mishra": 4,
    "CH Gayle": 3,
    "KA Pollard": 3,
    "V Kohli": 3
  },
  "2014": {
    "GJ Maxwell": 4,
    "RA Jadeja": 3,
    "Sandeep Sharma": 3,
    "DR Smith": 3,
    "RV Uthappa": 3
  },
  "2015": {
    "DA Warner": 4,
    "A Nehra": 3,
    "AD Russell": 3,
    "AM Rahane": 3,
    "BB McCullum": 2
  },
  "2016": {
    "V Kohli": 5,
    "AB de Villiers": 4,
    "RG Sharma": 4,
    "AD Russell": 3,
    "AJ Finch": 3
  },
  "2017": {
    "BA Stokes": 3,
    "NM Coulter-Nile": 3,
    "Rashid Khan": 2,
    "N Rana": 2,
    "SP Narine": 2
  }
}